{   "relevant_names": [
        "gnokii",
        "SDL_image",
        "python-dropbox",
        "qclib",
        "python-botocore",
        "dummy-test-package-gloster",
        "golang-github-bugsnag",
        "exec-maven-plugin"
    ]
}
